%!PS-Adobe-2.0 EPSF-2.0
%%Creator: OKS Library, <Igor.Soloviev@cern.ch>, CERN
%%Title: unknown
%%BoundingBox: 20 48 822 583
%%Pages: 1
%%DocumentFonts: Helvetica-Narrow Helvetica
%%EndComments

% set image font
/Helvetica-Narrow findfont
15.75 scalefont
setfont

% draw in landscape mode
90 rotate  0 -595 translate

% draw outline rectangle
gsave
0.96 0.96 0.96 setrgbcolor
 20.00 48.77 802.00 534.23 rectfill
grestore

gsave
1.31 setlinewidth
0.00 0.00 0.00 setrgbcolor
 264.14 243.04 moveto 492.54 243.04 lineto stroke
 126.32 425.49 moveto 126.32 399.24 lineto stroke
 126.32 399.24 moveto 126.32 399.24 lineto stroke
 126.32 399.24 moveto 126.32 309.98 lineto stroke
 264.14 302.10 moveto 306.15 302.10 lineto stroke
 306.15 302.10 moveto 306.15 354.61 lineto stroke
 218.20 216.78 moveto 218.20 208.91 lineto stroke
 218.20 208.91 moveto 244.45 208.91 lineto stroke
 244.45 208.91 moveto 244.45 98.65 lineto stroke
 218.20 216.78 moveto 218.20 208.91 lineto stroke
 218.20 208.91 moveto 72.50 208.91 lineto stroke
 72.50 208.91 moveto 72.50 98.65 lineto stroke
 619.86 294.23 moveto 619.86 399.24 lineto stroke
 619.86 399.24 moveto 453.16 399.24 lineto stroke
grestore
gsave
2.63 setlinewidth
0.00 0.00 0.00 setrgbcolor
 62.00 97.34 moveto 252.33 97.34 lineto stroke
 252.33 97.34 moveto 252.33 54.02 lineto stroke
 62.00 97.34 moveto 62.00 54.02 lineto stroke
 62.00 54.02 moveto 252.33 54.02 lineto stroke
 62.00 67.15 moveto 252.33 67.15 lineto stroke
 62.00 61.90 moveto 252.33 61.90 lineto stroke
 306.15 446.49 moveto 451.85 446.49 lineto stroke
 451.85 446.49 moveto 451.85 355.92 lineto stroke
 306.15 446.49 moveto 306.15 355.92 lineto stroke
 306.15 355.92 moveto 451.85 355.92 lineto stroke
 306.15 416.30 moveto 451.85 416.30 lineto stroke
 306.15 363.80 moveto 451.85 363.80 lineto stroke
 67.25 470.12 moveto 193.26 470.12 lineto stroke
 193.26 470.12 moveto 193.26 426.80 lineto stroke
 67.25 470.12 moveto 67.25 426.80 lineto stroke
 67.25 426.80 moveto 193.26 426.80 lineto stroke
 67.25 439.93 moveto 193.26 439.93 lineto stroke
 67.25 434.68 moveto 193.26 434.68 lineto stroke
 493.85 292.91 moveto 814.12 292.91 lineto stroke
 814.12 292.91 moveto 814.12 202.35 lineto stroke
 493.85 292.91 moveto 493.85 202.35 lineto stroke
 493.85 202.35 moveto 814.12 202.35 lineto stroke
 493.85 262.73 moveto 814.12 262.73 lineto stroke
 493.85 210.22 moveto 814.12 210.22 lineto stroke
 42.31 308.67 moveto 262.83 308.67 lineto stroke
 262.83 308.67 moveto 262.83 218.10 lineto stroke
 42.31 308.67 moveto 42.31 218.10 lineto stroke
 42.31 218.10 moveto 262.83 218.10 lineto stroke
 42.31 278.48 moveto 262.83 278.48 lineto stroke
 42.31 225.97 moveto 262.83 225.97 lineto stroke
grestore
 311.40 252.22 moveto (InformationHandler) show
 461.03 224.66 moveto (0..1) show
 16.06 380.86 moveto (Configurations) show
 92.19 319.17 moveto (1..N) show
 311.40 311.29 moveto (Algorithm) show
 312.71 336.23 moveto (0..1) show
 249.71 218.10 moveto (DestinationServers) show
 210.33 107.84 moveto (1..N) show
 92.19 190.53 moveto (SourceServers) show
 38.38 107.84 moveto (1..N) show
 546.35 342.79 moveto (Algorithm) show
 459.72 408.42 moveto (1..1) show
 69.88 76.34 moveto (InfrastructureApplication) show
 331.09 425.49 moveto (MIGAlgorithm) show
 311.40 396.61 moveto (LibraryPath: string) show
 311.40 372.98 moveto (Parameters: string) show
 75.13 449.11 moveto (MIGApplication) show
 571.29 271.91 moveto (MIGInformationHandler) show
 499.10 243.04 moveto (LibraryPath: string = 'libMIGContainers.so') show
 499.10 219.41 moveto (Parameters: string) show
 89.57 287.66 moveto (MIGConfiguration) show
 47.56 258.79 moveto (ProviderRegExp: string = '.+') show
 47.56 235.16 moveto (ObjectRegExp: string = '.+') show

% set footer font
/Helvetica findfont
12 scalefont
setfont

 20.00 24.00 moveto (Date: 2012-Jan-20 11:55:05) show
showpage
